Get difference between two smooths — get_difference • tidygam
…
    Examples

library(mgcv)
#> Loading required package: nlme
#> This is mgcv 1.8-42. For overview type 'help("mgcv-package")'.
set.seed(10)
data <- gamSim(4)
#> Factor `by' variable example
model <- gam(y ~ s(x2, by = fac) + s(x0), data = data)

get_difference(model, "x2", list(fac = c("1", "2")))
#> Warning: Could not recover model data from environment. Please make sure your
#>   data is available in your workspace.
#>   Trying to retrieve data from the model frame now.
#> # A tibble: 26 × 7
#>         x2 fac      x0  diff    se lower_ci upper_ci
#>      <dbl> <chr> <dbl> <dbl> <dbl>    <dbl>    <dbl>
#>  1 0.00134 1-2   0.499  2.83 0.701    1.45      4.20
#>  2 0.0413  1-2   0.499  2.65 0.589    1.49      3.80
#>  3 0.0812  1-2   0.499  2.47 0.498    1.49      3.44
#>  4 0.121   1-2   0.499  2.29 0.429    1.45      3.13
#>  5 0.161   1-2   0.499  2.11 0.378    1.37      2.85
#>  6 0.201   1-2   0.499  1.94 0.343    1.27      2.61
#>  7 0.241   1-2   0.499  1.78 0.318    1.15      2.40
#>  8 0.281   1-2   0.499  1.61 0.300    1.02      2.20
#>  9 0.321   1-2   0.499  1.44 0.286    0.884     2.01
#> 10 0.361   1-2   0.499  1.27 0.276    0.734     1.82
#> # ℹ 16 more rows
…
