Get started • tidygam
…
Basic model prediction

Let’s start with a simple model and get model-based predictions.

We will use the gest data table, available in tidygam.
The table consists of counts of gestures performed by infants of three
cultural backgrounds who participating in a longitudinal study (see
?gest for details and references).

data("gest")
gest
#> # A tibble: 540 × 5
#>    dyad  background months gesture count
#>    <fct> <fct>       <dbl> <fct>   <dbl>
#>  1 b01   Bengali        10 ho_gv       0
#>  2 b01   Bengali        10 point       0
#>  3 b01   Bengali        10 reach       5
#>  4 b01   Bengali        11 ho_gv       0
#>  5 b01   Bengali        11 point       1
#>  6 b01   Bengali        11 reach       8
#>  7 b01   Bengali        12 ho_gv       3
#>  8 b01   Bengali        12 point       0
#>  9 b01   Bengali        12 reach       0
#> 10 b02   Bengali        10 ho_gv       1
#> # ℹ 530 more rows
…
Factor smooth interactions are the GAM equivalent of
random/group-level effects (intercepts and slopes).

Let’s work with the struct data, which contains
event-related potentials measures of subjects listening to music and
speech. For each type (music vs language), the stimuli were either
“grammatical” or “ungrammatical” (i.e. the stimuli either respected
structural rules or they did not).

This is a subset of the original data, including voltage values only
for electrode 62.

data("struct")
struct
#> # A tibble: 4,400 × 7
#>        t electrode voltage subject stimulus.condition grammar.condition
#>    <dbl>     <dbl>   <dbl> <fct>   <fct>              <fct>            
#>  1  -100        62 -0.315  03      Language           Grammatical      
#>  2   -90        62 -0.320  03      Language           Grammatical      
#>  3   -80        62 -0.297  03      Language           Grammatical      
#>  4   -70        62 -0.628  03      Language           Grammatical      
#>  5   -60        62 -1.05   03      Language           Grammatical      
#>  6   -50        62 -0.734  03      Language           Grammatical      
#>  7   -40        62  0.0544 03      Language           Grammatical      
#>  8   -30        62  0.623  03      Language           Grammatical      
#>  9   -20        62  1.05   03      Language           Grammatical      
#> 10   -10        62  1.14   03      Language           Grammatical      
#> # ℹ 4,390 more rows
#> # ℹ 1 more variable: stim_gram <fct>
…
